^D:\WORK\MAPZ\LAB2\PURSUIRMIAMI_V0.1.2908A\X64\DEBUG\CANVAS_BUILDER.OBJ|D:\WORK\MAPZ\LAB2\PURSUIRMIAMI_V0.1.2908A\X64\DEBUG\CARSEXAMPLE.OBJ|D:\WORK\MAPZ\LAB2\PURSUIRMIAMI_V0.1.2908A\X64\DEBUG\WINDOW.OBJ
D:\WORK\MAPZ\LAB2\X64\DEBUG\PURSUIRMIAMI_V0.1.2908A.EXE
D:\WORK\MAPZ\LAB2\X64\DEBUG\PURSUIRMIAMI_V0.1.2908A.ILK
D:\WORK\MAPZ\LAB2\X64\DEBUG\PURSUIRMIAMI_V0.1.2908A.PDB
