^C:\USERS\BVOVC\SOURCE\REPOS\PURSUITMIAMI_V0.1.2708A\PURSUITMIAMI_V0.1.2708A\DEBUG\MAIN.OBJ|C:\USERS\BVOVC\SOURCE\REPOS\PURSUITMIAMI_V0.1.2708A\PURSUITMIAMI_V0.1.2708A\DEBUG\SERVER.OBJ
C:\USERS\BVOVC\SOURCE\REPOS\PURSUITMIAMI_V0.1.2708A\DEBUG\PURSUITMIAMI_V0.1.2708A.EXE
C:\USERS\BVOVC\SOURCE\REPOS\PURSUITMIAMI_V0.1.2708A\DEBUG\PURSUITMIAMI_V0.1.2708A.ILK
C:\USERS\BVOVC\SOURCE\REPOS\PURSUITMIAMI_V0.1.2708A\DEBUG\PURSUITMIAMI_V0.1.2708A.PDB
