^C:\USERS\BVOVC\SOURCE\REPOS\PURSUITMIAMI_V0.1.2708A\PURSUITMIAMI_V0.1.2708A\DEBUG\MAIN.OBJ
/OUT:"C:\USERS\BVOVC\SOURCE\REPOS\PURSUITMIAMI_V0.1.2708A\DEBUG\PURSUITMIAMI_V0.1.2708A.EXE" /INCREMENTAL /NOLOGO KERNEL32.LIB USER32.LIB GDI32.LIB WINSPOOL.LIB COMDLG32.LIB ADVAPI32.LIB SHELL32.LIB OLE32.LIB OLEAUT32.LIB UUID.LIB ODBC32.LIB ODBCCP32.LIB /MANIFEST /MANIFESTUAC:"level='asInvoker' uiAccess='false'" /manifest:embed /DEBUG:FASTLINK /PDB:"C:\USERS\BVOVC\SOURCE\REPOS\PURSUITMIAMI_V0.1.2708A\DEBUG\PURSUITMIAMI_V0.1.2708A.PDB" /SUBSYSTEM:CONSOLE /TLBID:1 /DYNAMICBASE /NXCOMPAT /IMPLIB:"C:\USERS\BVOVC\SOURCE\REPOS\PURSUITMIAMI_V0.1.2708A\DEBUG\PURSUITMIAMI_V0.1.2708A.LIB" /MACHINE:X86 DEBUG\MAIN.OBJ
^C:\USERS\BVOVC\SOURCE\REPOS\PURSUITMIAMI_V0.1.2708A\PURSUITMIAMI_V0.1.2708A\DEBUG\MAIN.OBJ|C:\USERS\BVOVC\SOURCE\REPOS\PURSUITMIAMI_V0.1.2708A\PURSUITMIAMI_V0.1.2708A\DEBUG\SERVER.OBJ
/OUT:"C:\USERS\BVOVC\SOURCE\REPOS\PURSUITMIAMI_V0.1.2708A\DEBUG\PURSUITMIAMI_V0.1.2708A.EXE" /INCREMENTAL /NOLOGO KERNEL32.LIB USER32.LIB GDI32.LIB WINSPOOL.LIB COMDLG32.LIB ADVAPI32.LIB SHELL32.LIB OLE32.LIB OLEAUT32.LIB UUID.LIB ODBC32.LIB ODBCCP32.LIB /MANIFEST /MANIFESTUAC:"level='asInvoker' uiAccess='false'" /manifest:embed /DEBUG:FASTLINK /PDB:"C:\USERS\BVOVC\SOURCE\REPOS\PURSUITMIAMI_V0.1.2708A\DEBUG\PURSUITMIAMI_V0.1.2708A.PDB" /SUBSYSTEM:CONSOLE /TLBID:1 /DYNAMICBASE /NXCOMPAT /IMPLIB:"C:\USERS\BVOVC\SOURCE\REPOS\PURSUITMIAMI_V0.1.2708A\DEBUG\PURSUITMIAMI_V0.1.2708A.LIB" /MACHINE:X86 DEBUG\MAIN.OBJ
DEBUG\SERVER.OBJ
